Data Visualisation with R Workshop Day 1
…
---

class: font_smaller

# Getting the data in the right form

<img src="images/day1-session2/pig-plot-1.png" style="display: block; margin: auto;" />
.grid[.item.border-right[
* The x-axis is the time when pig was weighed 
* The y-axis is the weight
* The facetting is by treatment

```
## # A tibble: 100 x 5
##    treatment  feed id    when    weight
##    <fct>     <int> <chr> <fct>    <int>
##  1 T1          674 pig1  initial     30
##  2 T1          674 pig1  final      195
##  3 T1          628 pig2  initial     21
##  4 T1          628 pig2  final      177
##  5 T1          661 pig3  initial     21
##  6 T1          661 pig3  final      180
##  7 T1          694 pig4  initial     33
##  8 T1          694 pig4  final      200
##  9 T1          713 pig5  initial     27
## 10 T1          713 pig5  final      197
## # … with 90 more rows
```
…
