Data Visualization with R Workshop Day 2
…
]

</div>

---
class: font_smaller

# <img src="https://upload.wikimedia.org/wikipedia/commons/0/06/Who_logo.svg" width="50px" style="vertical-align: middle;"> Tuberculosis incidence

The TB data is from the [WHO]( https://www.who.int/tb/country/data/download/en/). 

```
## # A tibble: 40,800 x 5
##    country      year age_group sex   count
##    <chr>       <dbl> <fct>     <chr> <dbl>
##  1 Afghanistan  1997 15-24     m        10
##  2 Afghanistan  1997 25-34     m         6
##  3 Afghanistan  1997 35-44     m         3
##  4 Afghanistan  1997 45-54     m         5
##  5 Afghanistan  1997 55-64     m         2
##  6 Afghanistan  1997 65-       m         0
##  7 Afghanistan  1997 15-24     f        38
##  8 Afghanistan  1997 25-34     f        36
##  9 Afghanistan  1997 35-44     f        14
## 10 Afghanistan  1997 45-54     f         8
## # … with 40,790 more rows
```
…
